{
  "log": {
    "level": "info",
    "timestamp": true
  },
  "dns": {
    "servers": [
      {
        "tag": "dns_direct",
        "address": "127.0.0.1",
        "strategy": "prefer_ipv4",
        "detour": "DIRECT"
      },
      {
        "tag": "dns_direct_ipv4",
        "address": "127.0.0.1",
        "strategy": "ipv4_only",
        "detour": "DIRECT"
      },
      {
        "tag": "dns_proxy",
        "address": "https://8.8.8.8/dns-query",
        "address_resolver": "dns_direct_ipv4",
        "address_strategy": "ipv4_only",
        "strategy": "ipv4_only",
        "detour": "🌀 谷歌网站"
      },
      {
        "tag": "dns_fakeip",
        "address": "fakeip",
        "strategy": "ipv4_only"
      }
    ],
    "rules": [
      {
        "outbound": "any",
        "server": "dns_direct_ipv4"
      },
      {
        "rule_set": [
          "my-direct",
          "geosite-googlefcm",
          "geosite-microsoft@cn"
        ],
        "server": "dns_direct"
      },
      {
        "rule_set": [
          "my-proxy",
          "geosite-category-media",
          "geosite-geolocation-!cn",
          "geosite-google",
          "geosite-telegram",
          "geosite-youtube"
          // "geosite-gfw"
        ],
        "server": "dns_fakeip"
      },
      {
        "rule_set": [
          "geosite-cn"
        ],
        "invert": true,
        "server": "dns_proxy",
        "client_subnet": "210.22.70.225"
      }
    ],
    "final": "dns_direct",
    "reverse_mapping": true,
    "fakeip": {
      "enabled": true,
      "inet4_range": "198.18.0.0/15"
    }
  },
  "inbounds": [
    {
      "type": "mixed",
      "tag": "proxy-in",
      "listen": "::",
      "listen_port": 20170
    },
    {
      "type": "direct",
      "tag": "dns-in",
      "listen": "::",
      "listen_port": 1053
    },
    {
      "type": "mixed",
      "tag": "mixed-in",
      "listen": "::",
      "listen_port": 7890
    },
    {
      "type": "redirect",
      "tag": "redirect-in",
      "listen": "::",
      "listen_port": 7892
    },
    {
      "type": "tproxy",
      "tag": "tproxy-in",
      "listen": "::",
      "listen_port": 7893
    }
  ],
  "route": {
    "rules": [
      {
        "inbound": "dns-in",
        "outbound": "dns-out"
      },
      {
        "protocol": "dns",
        "outbound": "dns-out"
      },
      {
        "inbound": "proxy-in",
        "outbound": "❄️ 代理节点"
      },
      {
        "clash_mode": "Global",
        "outbound": "🚀 节点选择"
      },
      {
        "clash_mode": "Direct",
        "outbound": "DIRECT"
      },
      {
        "rule_set": "my-direct",
        "outbound": "DIRECT"
      },
      {
        "rule_set": "my-block",
        "outbound": "REJECT"
      },
      {
        "rule_set": "my-proxy",
        "outbound": "🚀 节点选择"
      },
      // {
      //   "rule_set": "geosite-googlefcm",
      //   "outbound": "📢 谷歌推送"
      // },
      {
        "rule_set": [
          "geosite-microsoft@cn"
        ],
        "outbound": "DIRECT"
      },
      {
        "rule_set": [
          "geosite-telegram",
          "geoip-telegram"
        ],
        "outbound": "📲 电报消息"
      },
      {
        "rule_set": [
          "geosite-category-media",
          "geosite-youtube"
        ],
        "outbound": "🌍 国外媒体"
      },
      {
        "rule_set": [
          "geosite-google",
          "geoip-google"
        ],
        "outbound": "🌀 谷歌网站"
      },
      {
        "rule_set": [
          "geosite-geolocation-!cn"
        ],
        "outbound": "🚀 节点选择"
      },
      {
        "rule_set": [
          "geoip-cloudflare",
          "geoip-cloudfront"
        ],
        "outbound": "🚀 节点选择"
      // },
      // {
      //   "rule_set": [
      //     "geoip-facebook",
      //     "geoip-fastly",
      //     "geoip-twitter",
      //     "geoip-blocked"
      //   ],
      //   "outbound": "🚀 节点选择"
      }
    ],
    "rule_set": [
      {
        "type": "remote",
        "tag": "geosite-cn",
        "format": "binary",
        "url": "https://mirror.ghproxy.com/https://raw.githubusercontent.com/SagerNet/sing-geosite/rule-set/geosite-cn.srs",
        "update_interval": "720h0m0s"
      },
      {
        "type": "remote",
        "tag": "geosite-telegram",
        "format": "binary",
        "url": "https://mirror.ghproxy.com/https://raw.githubusercontent.com/SagerNet/sing-geosite/rule-set/geosite-telegram.srs",
        "update_interval": "720h0m0s"
      },
      {
        "type": "remote",
        "tag": "geoip-telegram",
        "format": "binary",
        "url": "https://mirror.ghproxy.com/https://raw.githubusercontent.com/Loyalsoldier/geoip/release/srs/telegram.srs",
        "update_interval": "720h0m0s"
      },
      {
        "type": "remote",
        "tag": "geosite-category-media",
        "format": "binary",
        "url": "https://mirror.ghproxy.com/https://raw.githubusercontent.com/SagerNet/sing-geosite/rule-set/geosite-category-porn.srs",
        "update_interval": "720h0m0s"
      },
      {
        "type": "remote",
        "tag": "geosite-youtube",
        "format": "binary",
        "url": "https://mirror.ghproxy.com/https://raw.githubusercontent.com/SagerNet/sing-geosite/rule-set/geosite-youtube.srs",
        "update_interval": "720h0m0s"
      },
      {
        "type": "remote",
        "tag": "geosite-googlefcm",
        "format": "binary",
        "url": "https://mirror.ghproxy.com/https://raw.githubusercontent.com/SagerNet/sing-geosite/rule-set/geosite-googlefcm.srs",
        "update_interval": "720h0m0s"
      },
      {
        "type": "remote",
        "tag": "geosite-google",
        "format": "binary",
        "url": "https://mirror.ghproxy.com/https://raw.githubusercontent.com/SagerNet/sing-geosite/rule-set/geosite-google.srs",
        "update_interval": "720h0m0s"
      },
      {
        "type": "remote",
        "tag": "geosite-microsoft@cn",
        "format": "binary",
        "url": "https://mirror.ghproxy.com/https://raw.githubusercontent.com/SagerNet/sing-geosite/rule-set/geosite-microsoft@cn.srs",
        "update_interval": "720h0m0s"
      },
      {
        "type": "remote",
        "tag": "geoip-google",
        "format": "binary",
        "url": "https://mirror.ghproxy.com/https://raw.githubusercontent.com/Loyalsoldier/geoip/release/srs/google.srs",
        "update_interval": "720h0m0s"
      },
      {
        "type": "remote",
        "tag": "geosite-geolocation-!cn",
        "format": "binary",
        "url": "https://mirror.ghproxy.com/https://raw.githubusercontent.com/SagerNet/sing-geosite/rule-set/geosite-geolocation-!cn.srs",
        "update_interval": "168h0m0s"
      },
      // {
      //   "type": "remote",
      //   "tag": "geosite-gfw",
      //   "format": "binary",
      //   "url": "https://mirror.ghproxy.com/https://raw.githubusercontent.com/Toperlock/sing-box-geosite/main/rule/gfw.srs",
      //   "update_interval": "168h0m0s"
      // },
      {
        "type": "remote",
        "tag": "geoip-cloudflare",
        "format": "binary",
        "url": "https://mirror.ghproxy.com/https://raw.githubusercontent.com/Loyalsoldier/geoip/release/srs/cloudflare.srs",
        "update_interval": "720h0m0s"
      },
      {
        "type": "remote",
        "tag": "geoip-cloudfront",
        "format": "binary",
        "url": "https://mirror.ghproxy.com/https://raw.githubusercontent.com/Loyalsoldier/geoip/release/srs/cloudfront.srs",
        "update_interval": "720h0m0s"
      },
      // {
      //   "type": "remote",
      //   "tag": "geoip-facebook",
      //   "format": "binary",
      //   "url": "https://mirror.ghproxy.com/https://raw.githubusercontent.com/Loyalsoldier/geoip/release/srs/facebook.srs",
      //   "update_interval": "720h0m0s"
      // },
      // {
      //   "type": "remote",
      //   "tag": "geoip-fastly",
      //   "format": "binary",
      //   "url": "https://mirror.ghproxy.com/https://raw.githubusercontent.com/Loyalsoldier/geoip/release/srs/fastly.srs",
      //   "update_interval": "720h0m0s"
      // },
      // {
      //   "type": "remote",
      //   "tag": "geoip-twitter",
      //   "format": "binary",
      //   "url": "https://mirror.ghproxy.com/https://raw.githubusercontent.com/Loyalsoldier/geoip/release/srs/twitter.srs",
      //   "update_interval": "720h0m0s"
      // },
      // {
      //   "type": "remote",
      //   "tag": "geoip-blocked",
      //   "format": "source",
      //   "url": "https://gitlab.com/silverzhaojr/mess/-/raw/main/singbox-config/myrules/geoip-blocked.json",
      //   "update_interval": "720h0m0s"
      // },
      {
        "type": "local",
        "tag": "my-direct",
        "format": "source",
        "path": "/data/local/etc/singbox/myrules/direct.json"
      },
      {
        "type": "local",
        "tag": "my-proxy",
        "format": "source",
        "path": "/data/local/etc/singbox/myrules/proxy.json"
      },
      {
        "type": "local",
        "tag": "my-block",
        "format": "source",
        "path": "/data/local/etc/singbox/myrules/block.json"
      }
    ],
    "final": "🐟 漏网之鱼",
    "default_mark": 7894
  },
  "experimental": {
    "cache_file": {
      "enabled": true,
      "store_fakeip": true
    },
    "clash_api": {
      "external_controller": "0.0.0.0:9999",
      "external_ui": "ui"
    }
  }
}
