{
    "lives": [
        {
            "epg": "https://epg.112114.xyz/?ch={name}&date={date}",
            "name": "diyp直播",
            "url": "https://gitlab.com/silverzhaojr/mess/-/raw/main/tv.txt"
        },
        {
            "name": "丫丫轮播",
            "url": "http://xiaoqiang.lan:35455/yylunbo.m3u?url=http://xiaoqiang.lan:35455"
        },
        {
            "name": "斗鱼一起看",
            "url": "http://xiaoqiang.lan:35455/douyuyqk.m3u?url=http://xiaoqiang.lan:35455"
        },
        {
            "name": "虎牙一起看",
            "url": "http://xiaoqiang.lan:35455/huyayqk.m3u?url=http://xiaoqiang.lan:35455"
        }
    ]
}